^C:\USERS\ДИМА\DESKTOP\KURS_PROG2\OPENGL\LABS\LAB3\IMAGEWINDOW\IMAGEWINDOW\IMAGE.CPP
C:\USERS\Дима\DESKTOP\KURS_PROG2\OPENGL\LABS\LAB3\IMAGEWINDOW\IMAGEWINDOW\X64\DEBUG\VC143.PDB
C:\USERS\Дима\DESKTOP\KURS_PROG2\OPENGL\LABS\LAB3\IMAGEWINDOW\IMAGEWINDOW\X64\DEBUG\VC143.IDB
C:\USERS\Дима\DESKTOP\KURS_PROG2\OPENGL\LABS\LAB3\IMAGEWINDOW\IMAGEWINDOW\X64\DEBUG\IMAGE.OBJ
